{
    "@context": ["https://www.w3.org/ns/activitystreams",
                        {"@language": "en"}],
        "type": "Post",
        "id": "posts/124ClocalhostusernameFragmentedCompressedDesktop",
        "following": "https://guarddoggo.snowcrash.network/following.json",
        "followers": "https://guarddoggo.snowcrash.network/followers.json",
        "liked": "https://guarddoggo.snowcrash.network/liked.json",
        "inbox": "https://guarddoggo.snowcrash.network/inbox.json",
        "outbox": "https://guarddoggo.snowcrash.network/feed.json",
        "preferredUsername": "GuardDoggo",
        "summary": "screeeee",
        "content": "eeee",

        "icon": [
            "https://guarddoggo.snowcrash.network/image/bork"
        ]
}